 int[] points = { 83,99,52,93,15 };
        int[,] array = new int[10,10];
        int sum = 0;
        for(int i = 0;i < points.Length; i++)
        {
            sum += points[i];
        }
        //Debug.Log(array.Length);
        for(int t = 0;t < array.GetLength(0); t++)
        {
            for(int y = 0;y < array.GetLength(1); y++)
            {
                array[t, y] = 1;
                Debug.Log(array[t, y]);
            }
        }
        //int average = sum / points.Length;
        //Debug.Log(average);